{
  "docs": [
    {
      "screenshots": ["screenshot1.png"],
      "tags": ["Open Source", "RPG", "Adventure"],
      "alias": null,
      "files": null,
      "title": "uCity",
      "permalink": "ucity",
      "developer": "AntonioND",
      "repository": "https://github.com/AntonioND/ucity",
      "license": "GPLv3",
      "typetag": "game",
      "rom": "ucity.gbc",
      "description": null,
      "platform": "GBC",
      "assetLicense": null,
      "video": "https://www.youtube.com/watch?v=2rir-TVx020",
      "date": null,
      "gameWebsite": null,
      "devWebsite": null,
      "onlineplay": true,
      "wip": false
    },
    {
      "screenshots": ["1.png", "2.png"],
      "tags": ["Open Source", "Puzzle"],
      "alias": null,
      "files": null,
      "title": "2048gb",
      "permalink": "2048gb",
      "developer": "Sanqui",
      "repository": "https://github.com/Sanqui/2048-gb",
      "license": "Zlib",
      "typetag": "game",
      "rom": "2048.gb",
      "description": null,
      "platform": "GB",
      "assetLicense": null,
      "video": null,
      "date": null,
      "gameWebsite": null,
      "devWebsite": null,
      "onlineplay": true,
      "wip": false
    },
    {
      "screenshots": ["1.png"],
      "tags": ["Open Source", "Platform"],
      "alias": null,
      "files": null,
      "title": "Tuff",
      "permalink": "tuff",
      "developer": "BonsaiDen",
      "repository": "https://github.com/BonsaiDen/Tuff.gb",
      "license": "GPLv3",
      "typetag": "game",
      "rom": "game.gb",
      "description": null,
      "platform": "GB",
      "assetLicense": null,
      "video": null,
      "date": null,
      "gameWebsite": null,
      "devWebsite": null,
      "onlineplay": true,
      "wip": false
    },
    {
      "screenshots": ["20110402_adjustris.png"],
      "tags": null,
      "alias": null,
      "files": null,
      "title": "adjustris",
      "permalink": "adjustris",
      "developer": "Dave VanEe",
      "repository": "https://github.com/tbsp/Adjustris",
      "license": "CC0-1.0",
      "typetag": "game",
      "rom": "adjustris.gb",
      "description": null,
      "platform": "GB",
      "assetLicense": null,
      "video": null,
      "date": "2005-07-16T22:00:00.000Z",
      "gameWebsite": null,
      "devWebsite": null,
      "onlineplay": true,
      "wip": false
    },
    {
      "screenshots": ["screenshot1.bmp"],
      "tags": ["Open Source", "Action"],
      "alias": null,
      "files": null,
      "title": "Tobu Tobu Girl",
      "permalink": "tobutobugirl",
      "developer": "Tangram Games",
      "repository": "https://github.com/SimonLarsen/tobutobugirl",
      "license": "MIT",
      "typetag": "game",
      "rom": "tobu.gb",
      "platform": "GB",
      "assetLicense": null,
      "description": null,
      "video": null,
      "date": "2017-11-30T23:00:00.000Z",
      "gameWebsite": null,
      "devWebsite": null,
      "onlineplay": true,
      "wip": false
    },
    {
      "screenshots": ["screenshot01.bmp"],
      "tags": ["Open Source", "Action"],
      "alias": null,
      "files": null,
      "title": "PlantBoy",
      "permalink": "plantboy",
      "developer": "exezin",
      "typetag": "game",
      "platform": "GB",
      "rom": "PlantBoy.gb",
      "license": "MIT",
      "date": "2015-12-12T23:00:00.000Z",
      "repository": "https://github.com/exezin/PlantBoy",
      "onlineplay": true,
      "assetLicense": null,
      "description": null,
      "video": null,
      "gameWebsite": null,
      "devWebsite": null,
      "wip": false
    },
    {
      "screenshots": ["screenshot01.bmp", "screenshot02.bmp"],
      "tags": ["Open Source", "Action", "Platform"],
      "alias": null,
      "files": null,
      "title": "exeman",
      "permalink": "exeman",
      "developer": "exezin",
      "typetag": "game",
      "platform": "GB",
      "rom": "exeman.gb",
      "date": "2017-04-23T22:00:00.000Z",
      "repository": "https://github.com/exezin/exeman",
      "onlineplay": true,
      "license": null,
      "assetLicense": null,
      "description": null,
      "video": null,
      "gameWebsite": null,
      "devWebsite": null,
      "wip": false
    },
    {
      "screenshots": ["screenshot01.bmp", "screenshot02.bmp"],
      "tags": ["Open Source", "Puzzle"],
      "alias": null,
      "files": null,
      "title": "Geometrix",
      "permalink": "geometrix",
      "developer": "AntonioND",
      "typetag": "game",
      "platform": "GBC",
      "rom": "geometrix.gbc",
      "license": "GPLv3",
      "date": "2016-01-28T23:00:00.000Z",
      "repository": "https://github.com/AntonioND/geometrix",
      "onlineplay": true,
      "assetLicense": null,
      "description": null,
      "video": null,
      "gameWebsite": null,
      "devWebsite": null,
      "wip": false
    },
    {
      "screenshots": [
        "screenshot.png",
        "Sheep-It-Up-Free-ROM-Version-Game-Boy-Game.png"
      ],
      "tags": ["Platform", "Open Source"],
      "alias": null,
      "files": null,
      "title": "Sheep it up!",
      "permalink": "sheepitup",
      "developer": "Dr. Ludos",
      "typetag": "game",
      "platform": "GB",
      "rom": "sheepitup.gb",
      "date": "2017-07-07T00:00:00.000Z",
      "repository": "https://gamejolt.com/games/sheepitup/267335",
      "gameWebsite": "https://gamejolt.com/games/sheepitup/267335",
      "devWebsite": "http://www.ludoscience.com",
      "license": null,
      "assetLicense": null,
      "description": null,
      "video": null,
      "onlineplay": true,
      "wip": false
    }
  ],
  "total": 490,
  "limit": 9,
  "page": 1,
  "pages": 55
}
